{"value":{"items":[{"feedID":36261,"employeeID":2,"sender":{"gender":"M","groupIDs":[],"employeeID":2,"name":"刘晨","profileImage":"201201_19_a3a3de65-ba8f-4ad1-9641-e29116f6fb65"},"feedContentLength":222,"source":1,"sourceDescription":"纷享平台","createTime":1364796789,"feedType":1,"feedTypeDescription":"分享","isPublic":false,"replyCount":7,"isUnRead":false,"followTime":0,"canDelete":false,"canReply":true,"isEncrypted":false,"encryptTitle":"","pictures":[],"files":[],"employeeRange":"研发中心","lastUpdateTime":1364796789,"feedRangeDescription":"研发中心","feedRangeTip":"研发中心","feedRangeEntities":[{"dataID":2,"name":"研发中心","isCircle":true}],"smsRemaindCount":0,"readCount":0,"feedContent":[{"type":0,"text":"企业微信接口调整\r\r1、修改初始化"},{"type":1,"text":"Se"},{"type":0,"text":"ssion方法：增加字段“已缓存ShortMessageCreateTimeTicks”，如果没有已经缓存的数据，提交为0，则和原来返回结果一样；如果该字段大于0，则额外返回从这条Message之后的所有Message的ID和创建时间。\r\r2、增加根据ShortMessage ID List获取ShortMessage实体的方法。\r\r这两个方法用于支持本地数据缓存及和服务器同步的机制\r\r"},{"type":5,"text":"@李健","dataID":"128","dataTitle":"李健"},{"type":0,"text":" "},{"type":5,"text":"@陈骞","dataID":"126","dataTitle":"陈骞"},{"type":0,"text":" "}],"replies":[],"like":{"likeCount":0},"isAlreadyLike":false,"isFollowed":false,"isArchived":false,"isFeedLiked":false,"feedNDFiles":[]},{"feedID":35009,"employeeID":2,"sender":{"gender":"M","groupIDs":[],"employeeID":2,"name":"刘晨","profileImage":"201201_19_a3a3de65-ba8f-4ad1-9641-e29116f6fb65"},"feedContentLength":204,"source":1,"sourceDescription":"纷享平台","createTime":1363591997,"feedType":1,"feedTypeDescription":"分享","isPublic":false,"replyCount":0,"isUnRead":false,"followTime":0,"canDelete":false,"canReply":true,"isEncrypted":false,"encryptTitle":"","pictures":[],"files":[],"employeeRange":"研发中心","lastUpdateTime":1363591997,"feedRangeDescription":"研发中心","feedRangeTip":"研发中心","feedRangeEntities":[{"dataID":2,"name":"研发中心","isCircle":true}],"smsRemaindCount":0,"readCount":0,"feedContent":[{"type":3,"text":"#企业QQ#","dataTitle":"企业QQ"},{"type":0,"text":"\r\r企业QQ客户端交互页面梳理\r\r1、主面板Icon：点击后进入纷享主页面\r~/Html/Home/Index\r\r2、右键菜单：选择协同=>发日志、发审批、发任务\r~/HtmlEmbed/Plan/"},{"type":1,"text":"Se"},{"type":0,"text":"nd\r~/HtmlEmbed/Approve/"},{"type":1,"text":"Se"},{"type":0,"text":"nd\r~/HtmlEmbed/Work/"},{"type":1,"text":"Se"},{"type":0,"text":"nd\r\r3、个人资料卡：进入个人页\r~/Html/Employee/Profile\r\r"},{"type":5,"text":"@李全良","dataID":"1","dataTitle":"李全良"},{"type":0,"text":" \r\r"}],"replies":[],"like":{"likeCount":0},"isAlreadyLike":false,"isFollowed":false,"isArchived":false,"isFeedLiked":false,"feedNDFiles":[]},{"feedID":34819,"employeeID":2,"sender":{"gender":"M","groupIDs":[],"employeeID":2,"name":"刘晨","profileImage":"201201_19_a3a3de65-ba8f-4ad1-9641-e29116f6fb65"},"feedContentLength":459,"source":1,"sourceDescription":"纷享平台","createTime":1363332519,"feedType":1,"feedTypeDescription":"分享","isPublic":false,"replyCount":0,"isUnRead":false,"followTime":0,"canDelete":false,"canReply":true,"isEncrypted":false,"encryptTitle":"","pictures":[],"files":[],"employeeRange":"2个部门","lastUpdateTime":1363332519,"feedRangeDescription":"2个部门","feedRangeTip":"研发中心，IOS终端部","feedRangeEntities":[{"dataID":2,"name":"研发中心","isCircle":true},{"dataID":23,"name":"IOS终端部","isCircle":true}],"smsRemaindCount":0,"readCount":0,"feedContent":[{"type":0,"text":"iOS私信问题\r1、"},{"type":1,"text":"Se"},{"type":0,"text":"ssion列表个人对话，最后发送内容提示不对\r2、如果收到的最后一条是语音并且已经听过，"},{"type":1,"text":"Se"},{"type":0,"text":"ssion列表中最后一句话的提示，“[语音]”应该恢复为灰色\r3、录制语音的遮罩为透明，中间区域应该再大一些\r4、录制语音的按钮高度再增加一些，参考微信\r5、录制语音限制时间长度为60s\r6、图片发出时呈现的逻辑和服务器端获取的不一样（发送一张特别高的图片）\r7、录音动画播放和停止有延迟\r8、一个未读的语音第一次播放结束后如果之后还有未读的语音应当自动播放\r9、退出讨论组按钮的字体应该更大\r10、如果是未命名的讨论组，点击修改讨论组名称不应显示“未命名”\r11、点击修改讨论组名称会让对话列表的附件区域弹出来\r12、附件类型下面增加附件类型名称\r13、讨论组中修改成员并增加一个已经存在的人，在返回到"},{"type":1,"text":"Se"},{"type":0,"text":"ssion列表时Crash\r14、加载历史聊天记录的菊花转显示和定位问题\r15、文字对话记录长按增加拷贝功能（不用选择，直接拷贝整个文字）\r\r"},{"type":5,"text":"@陈骞","dataID":"126","dataTitle":"陈骞"},{"type":0,"text":" "},{"type":5,"text":"@郭巍","dataID":"91","dataTitle":"郭巍"},{"type":0,"text":" "},{"type":5,"text":"@张海波","dataID":"14","dataTitle":"张海波"},{"type":0,"text":" \r\r"},{"type":4,"text":"@IOS终端部","dataID":"23","dataTitle":"IOS终端部"},{"type":0,"text":" 加油！"}],"replies":[],"like":{"likeCount":0},"isAlreadyLike":false,"isFollowed":false,"isArchived":false,"isFeedLiked":false,"feedNDFiles":[]},{"feedID":33049,"employeeID":2,"sender":{"gender":"M","groupIDs":[],"employeeID":2,"name":"刘晨","profileImage":"201201_19_a3a3de65-ba8f-4ad1-9641-e29116f6fb65"},"feedContentLength":193,"source":1,"sourceDescription":"纷享平台","createTime":1361958339,"feedType":4,"feedTypeDescription":"审批","isPublic":false,"replyCount":2,"isUnRead":false,"followTime":0,"canDelete":false,"canReply":true,"isEncrypted":false,"encryptTitle":"","pictures":[],"files":[{"attachID":21979,"attachName":"合作终止说明模板.doc","attachPath":"201302_27_c33ef906-5580-4dbb-9400-cab34922cc34.doc","attachSize":13312,"attachType":3,"canPreview":true,"createTime":1361958339,"createTimeStr":"1361958339410","dataID":33049,"employeeID":2,"documentFormat":101,"feedType":4,"height":0,"width":0,"isPublic":false,"source":1,"previewFormat":1,"fileIcon":"doc"}],"employeeRange":"1个部门，3个同事","lastUpdateTime":1361975110,"feedRangeDescription":"1个部门，3个同事","feedRangeTip":"罗旭，石祎，张小路，SE维护组","feedRangeEntities":[{"dataID":3,"name":"罗旭","isCircle":false},{"dataID":75,"name":"石祎","isCircle":false},{"dataID":77,"name":"张小路","isCircle":false},{"dataID":11,"name":"SE维护组","isCircle":true}],"smsRemaindCount":0,"readCount":0,"feedContent":[{"type":0,"text":"经过和中科鸿基的赵静沟通，"},{"type":1,"text":"SE"},{"type":0,"text":"服务器下架需要补800元的托管超期费用（按8天计算，应为877，优惠到800）。\r\r另外因为两会3月1日起不能进机房，所以必须在明天（2月28日）将服务器拉出，否则就要到两会以后了。请安排人员。\r\r服务器下架应该不需要程波参与了。附件的合作终止模版需要填写，以及明天下架人员的身份证号需要提供给中科鸿基。\r\r"},{"type":5,"text":"@刘红燕","dataID":"8","dataTitle":"刘红燕"},{"type":0,"text":" "},{"type":5,"text":"@石祎","dataID":"75","dataTitle":"石祎"},{"type":0,"text":" "},{"type":5,"text":"@张小路","dataID":"77","dataTitle":"张小路"},{"type":0,"text":" "},{"type":5,"text":"@李全良","dataID":"1","dataTitle":"李全良"},{"type":0,"text":" "},{"type":5,"text":"@杨春艳","dataID":"42","dataTitle":"杨春艳"},{"type":0,"text":" "}],"approve":{"currentApproverID":0,"currentApprover":{"employeeID":0},"status":2,"canAddAtEmployees":true,"canApprove":false,"canChangeApprover":true,"canCancel":false,"lastUpdateTime":1361975110,"senderID":2,"sender":{"gender":"M","groupIDs":[],"employeeID":2,"name":"刘晨","profileImage":"201201_19_a3a3de65-ba8f-4ad1-9641-e29116f6fb65"}},"replies":[{"feedReplyID":51327,"feedID":33049,"employeeID":3,"sender":{"gender":"M","groupIDs":[],"employeeID":3,"name":"罗旭","profileImage":"201310_31_61f03dc8-ec5e-45bc-9772-f6d60335faa0"},"createTime":1361975110,"source":1,"sourceDescription":"纷享平台","replyContentLength":7,"replyContent":[{"type":0,"text":"请红燕安排到位"}],"isUnRead":false,"pictures":[],"files":[],"operationType":1}],"like":{"likeCount":0},"isAlreadyLike":false,"isFollowed":false,"isArchived":false,"isFeedLiked":false,"feedNDFiles":[]},{"feedID":32698,"employeeID":2,"sender":{"gender":"M","groupIDs":[],"employeeID":2,"name":"刘晨","profileImage":"201201_19_a3a3de65-ba8f-4ad1-9641-e29116f6fb65"},"feedContentLength":427,"source":1,"sourceDescription":"纷享平台","createTime":1361732235,"feedType":1,"feedTypeDescription":"分享","isPublic":false,"replyCount":2,"isUnRead":false,"followTime":0,"canDelete":false,"canReply":true,"isEncrypted":false,"encryptTitle":"","pictures":[],"files":[],"employeeRange":"1个部门，2个同事","lastUpdateTime":1361732235,"feedRangeDescription":"1个部门，2个同事","feedRangeTip":"罗旭，程波，SE维护组","feedRangeEntities":[{"dataID":3,"name":"罗旭","isCircle":false},{"dataID":32,"name":"程波","isCircle":false},{"dataID":11,"name":"SE维护组","isCircle":true}],"smsRemaindCount":0,"readCount":0,"feedContent":[{"type":3,"text":"#SE服务停止#","dataTitle":"SE服务停止"},{"type":0,"text":"\r\r"},{"type":1,"text":"SE"},{"type":0,"text":"服务终于调通了，感谢"},{"type":5,"text":"@程波","dataID":"32","dataTitle":"程波"},{"type":0,"text":" 的辛苦努力。"},{"type":1,"text":"SE"},{"type":0,"text":"服务环境变化造成的影响还是有些始料未及，感谢程波在这个过程中一直配合修改发布方案。\r\r从整个恢复和调整的过程中发现，原有"},{"type":1,"text":"SE"},{"type":0,"text":"的架构拥有非常多的问题：结构复杂、难以部署、难以维护，迁移的工作量非常之大。而且由于确实已经几年没有维护，很多细节只能一点一点回忆。\r\r相比之下纷享的服务确实优化了非常多，可以说完全规避了原来"},{"type":1,"text":"SE"},{"type":0,"text":"遇到的几乎所有问题，并且在很多方面还有大幅提升。不得不说，确实也是经过了"},{"type":1,"text":"SE"},{"type":0,"text":"的积累，才走到今天，才能让纷享有如此好的底层架构设计方案。再次感谢"},{"type":5,"text":"@李全良","dataID":"1","dataTitle":"李全良"},{"type":0,"text":" \r\r"},{"type":1,"text":"SE"},{"type":0,"text":"目前已经从灯市口机房迁移到上地，和纷享使用相同的环境。在网络内程波已经做了区分，双方相对独立。硬件问题基本得以解决。\r\r但同样，"},{"type":1,"text":"SE"},{"type":0,"text":"由于应用程序设计的缺陷，造成的超大数据量也已经超出了程序和数据库能够服务的极限，无法保证"},{"type":1,"text":"SE"},{"type":0,"text":"系统继续能够稳定运行。目前也仅仅是维持。还希望诸位了解。\r\r"},{"type":5,"text":"@罗旭","dataID":"3","dataTitle":"罗旭"},{"type":0,"text":" "},{"type":4,"text":"@SE维护组","dataID":"11","dataTitle":"SE维护组"},{"type":0,"text":" "}],"replies":[],"like":{"likeCount":0},"isAlreadyLike":false,"isFollowed":false,"isArchived":false,"isFeedLiked":false,"feedNDFiles":[]},{"feedID":32021,"employeeID":2,"sender":{"gender":"M","groupIDs":[],"employeeID":2,"name":"刘晨","profileImage":"201201_19_a3a3de65-ba8f-4ad1-9641-e29116f6fb65"},"feedContentLength":428,"source":1,"sourceDescription":"纷享平台","createTime":1361026383,"feedType":1,"feedTypeDescription":"分享","isPublic":false,"replyCount":3,"isUnRead":false,"followTime":0,"canDelete":false,"canReply":true,"isEncrypted":false,"encryptTitle":"","pictures":[],"files":[],"employeeRange":"1个部门，2个同事","lastUpdateTime":1361026383,"feedRangeDescription":"1个部门，2个同事","feedRangeTip":"罗旭，吴昊，SE维护组","feedRangeEntities":[{"dataID":3,"name":"罗旭","isCircle":false},{"dataID":17,"name":"吴昊","isCircle":false},{"dataID":11,"name":"SE维护组","isCircle":true}],"smsRemaindCount":0,"readCount":0,"feedContent":[{"type":3,"text":"#SE服务停止#","dataTitle":"SE服务停止"},{"type":0,"text":"\r\r"},{"type":1,"text":"SE"},{"type":0,"text":"系统目前不稳定主要由以下原因造成：\r\r1、服务器陈旧，有时会重启，造成"},{"type":1,"text":"SE"},{"type":0,"text":"服务中断。"},{"type":1,"text":"SE"},{"type":0,"text":"原有服务器3台，存储1台，之前已经终止了SV1的服务，并将SV2上的关键服务迁移到SV3中。目前SV3相对稳定，但是也检测到重启的现象。之前发生过由于SV3重启造成域控服务中断而"},{"type":1,"text":"SE"},{"type":0,"text":"服务无法启动，由程波和韩鹏去机房后解决。目前在不更换硬件的情况下无法保证这方面不再出现问题。\r\r2、数据库数据海量增加。目前锡恩的数据库文件大小为45G，其次英特普罗是2G，茜茜曼迪是1G，其余均为100MB左右。由于数据库文件太大，在检索数据时造成数据库发生内存溢出，造成数据库服务崩溃，进而引发服务中断。\r\r3、想要根本性解决2的问题必须要涉及到重新开发代码，目前"},{"type":1,"text":"SE"},{"type":0,"text":"的代码已经3年没有维护，而且当时都没有文档，恢复开发几乎是不可能的，因此2的问题在解决的硬件不稳定的情况后仍旧得不到解决。\r\r今天吴昊提供了一个方案，感觉可以尝试一下。\r\r"},{"type":5,"text":"@罗旭","dataID":"3","dataTitle":"罗旭"},{"type":0,"text":" "},{"type":5,"text":"@李全良","dataID":"1","dataTitle":"李全良"},{"type":0,"text":" "}],"replies":[],"like":{"likeCount":0},"isAlreadyLike":false,"isFollowed":false,"isArchived":false,"isFeedLiked":false,"feedNDFiles":[]},{"feedID":31939,"employeeID":2,"sender":{"gender":"M","groupIDs":[],"employeeID":2,"name":"刘晨","profileImage":"201201_19_a3a3de65-ba8f-4ad1-9641-e29116f6fb65"},"feedContentLength":38,"source":1,"sourceDescription":"纷享平台","createTime":1360724377,"feedType":1,"feedTypeDescription":"分享","isPublic":false,"replyCount":3,"isUnRead":false,"followTime":0,"canDelete":false,"canReply":true,"isEncrypted":false,"encryptTitle":"","pictures":[],"files":[],"employeeRange":"1个部门，1个同事","lastUpdateTime":1360724377,"feedRangeDescription":"1个部门，1个同事","feedRangeTip":"罗旭，SE维护组","feedRangeEntities":[{"dataID":3,"name":"罗旭","isCircle":false},{"dataID":11,"name":"SE维护组","isCircle":true}],"smsRemaindCount":0,"readCount":0,"feedContent":[{"type":3,"text":"#SE服务停止#","dataTitle":"SE服务停止"},{"type":0,"text":"\r\r接到范亚俊电话，处理时间30分钟，重启SV72和SV62"}],"replies":[],"like":{"likeCount":0},"isAlreadyLike":false,"isFollowed":false,"isArchived":false,"isFeedLiked":false,"feedNDFiles":[]},{"feedID":31256,"employeeID":2,"sender":{"gender":"M","groupIDs":[],"employeeID":2,"name":"刘晨","profileImage":"201201_19_a3a3de65-ba8f-4ad1-9641-e29116f6fb65"},"feedContentLength":490,"source":1,"sourceDescription":"纷享平台","createTime":1359600438,"feedType":1,"feedTypeDescription":"分享","isPublic":false,"replyCount":3,"isUnRead":false,"followTime":0,"canDelete":false,"canReply":true,"isEncrypted":false,"encryptTitle":"","pictures":[],"files":[],"employeeRange":"研发中心","lastUpdateTime":1359600438,"feedRangeDescription":"研发中心","feedRangeTip":"研发中心","feedRangeEntities":[{"dataID":2,"name":"研发中心","isCircle":true}],"smsRemaindCount":0,"readCount":0,"feedContent":[{"type":0,"text":"错误日志\r\r序号：7\r\r企业（帐号、员工ID）：深圳市皇廷世家网络科技有限公司（szhtsj, 35）\r\r类.方法：M.ShortMessage.Index\r\r产生时间：2013-01-31 09:44:21\r\rRouteData.Values:controller＝ShortMessage,action＝Index,area＝M,\rException:\rSystem.Web.HttpCompileException (0x80004005): c:\\inetpub\\201210\\szhtsj\\Areas\\M\\Views\\ShortMessage\\Index.cshtml(13): error CS1061: “Coop.Web.Models.ShortMessage"},{"type":1,"text":"Se"},{"type":0,"text":"ssionEntity”不包含“ParticipantsNames”的定义，并且找不到可接受类型为“Coop.Web.Models.ShortMessage"},{"type":1,"text":"Se"},{"type":0,"text":"ssionEntity”的第一个参数的扩展方法“ParticipantsNames”(是否缺少 using 指令或程序集引用?)\r\r"},{"type":5,"text":"@江涛","dataID":"30","dataTitle":"江涛"},{"type":0,"text":" "}],"replies":[],"like":{"likeCount":0},"isAlreadyLike":false,"isFollowed":false,"isArchived":false,"isFeedLiked":false,"feedNDFiles":[]},{"feedID":30946,"employeeID":2,"sender":{"gender":"M","groupIDs":[],"employeeID":2,"name":"刘晨","profileImage":"201201_19_a3a3de65-ba8f-4ad1-9641-e29116f6fb65"},"feedContentLength":90,"source":1,"sourceDescription":"纷享平台","createTime":1359422847,"feedType":1,"feedTypeDescription":"分享","isPublic":false,"replyCount":0,"isUnRead":false,"followTime":0,"canDelete":false,"canReply":true,"isEncrypted":false,"encryptTitle":"","pictures":[],"files":[],"employeeRange":"1个部门，1个同事","lastUpdateTime":1359422847,"feedRangeDescription":"1个部门，1个同事","feedRangeTip":"罗旭，SE维护组","feedRangeEntities":[{"dataID":3,"name":"罗旭","isCircle":false},{"dataID":11,"name":"SE维护组","isCircle":true}],"smsRemaindCount":0,"readCount":0,"feedContent":[{"type":3,"text":"#SE服务停止#","dataTitle":"SE服务停止"},{"type":0,"text":"\r\r今日8点20，韩鹏提示"},{"type":1,"text":"SE"},{"type":0,"text":"服务停止了，客户投诉。处理后"},{"type":1,"text":"SE"},{"type":0,"text":"服务回复。\r\r处理时间：1小时\r原因：锡恩数据量太大造成数据库停止服务\r\r"},{"type":5,"text":"@罗旭","dataID":"3","dataTitle":"罗旭"},{"type":0,"text":" "},{"type":5,"text":"@李全良","dataID":"1","dataTitle":"李全良"},{"type":0,"text":" "},{"type":5,"text":"@刘红燕","dataID":"8","dataTitle":"刘红燕"},{"type":0,"text":" "}],"replies":[],"like":{"likeCount":0},"isAlreadyLike":false,"isFollowed":false,"isArchived":false,"isFeedLiked":false,"feedNDFiles":[]},{"feedID":30817,"employeeID":2,"sender":{"gender":"M","groupIDs":[],"employeeID":2,"name":"刘晨","profileImage":"201201_19_a3a3de65-ba8f-4ad1-9641-e29116f6fb65"},"feedContentLength":234,"source":1,"sourceDescription":"纷享平台","createTime":1359335080,"feedType":1,"feedTypeDescription":"分享","isPublic":false,"replyCount":1,"isUnRead":false,"followTime":0,"canDelete":false,"canReply":true,"isEncrypted":false,"encryptTitle":"","pictures":[],"files":[],"employeeRange":"1个部门，1个同事","lastUpdateTime":1359335080,"feedRangeDescription":"1个部门，1个同事","feedRangeTip":"罗旭，SE维护组","feedRangeEntities":[{"dataID":3,"name":"罗旭","isCircle":false},{"dataID":11,"name":"SE维护组","isCircle":true}],"smsRemaindCount":0,"readCount":0,"feedContent":[{"type":3,"text":"#SE服务停止#","dataTitle":"SE服务停止"},{"type":0,"text":"\r\r昨天程波和韩鹏去机房修复服务器，下午16：30我和程波配合已将"},{"type":1,"text":"SE"},{"type":0,"text":"服务调整正常。\r\r今天早上韩鹏通知"},{"type":1,"text":"SE"},{"type":0,"text":"服务又中断了，经检查错误日志应该是由于"},{"type":1,"text":"SE"},{"type":0,"text":"的数据库服务器不堪重负，导致数据库服务器瘫痪所致。目前已经重启了数据库和企业服务，暂时正常。\r\r目前"},{"type":1,"text":"SE"},{"type":0,"text":"由于锡恩的数据量异常巨大，造成数据库服务器服务超过极限，因此会经常崩溃，引起客户投诉。还希望各位重视。"},{"type":1,"text":"SE"},{"type":0,"text":"如果按照目前的情况，更换完服务器也无法保证一直可以正常运行。\r\r"},{"type":5,"text":"@罗旭","dataID":"3","dataTitle":"罗旭"},{"type":0,"text":" "},{"type":5,"text":"@李全良","dataID":"1","dataTitle":"李全良"},{"type":0,"text":" "},{"type":5,"text":"@刘红燕","dataID":"8","dataTitle":"刘红燕"},{"type":0,"text":" "}],"replies":[],"like":{"likeCount":0},"isAlreadyLike":false,"isFollowed":false,"isArchived":false,"isFeedLiked":false,"feedNDFiles":[]},{"feedID":30679,"employeeID":2,"sender":{"gender":"M","groupIDs":[],"employeeID":2,"name":"刘晨","profileImage":"201201_19_a3a3de65-ba8f-4ad1-9641-e29116f6fb65"},"feedContentLength":198,"source":1,"sourceDescription":"纷享平台","createTime":1359081185,"feedType":1,"feedTypeDescription":"分享","isPublic":false,"replyCount":1,"isUnRead":false,"followTime":0,"canDelete":false,"canReply":true,"isEncrypted":false,"encryptTitle":"","pictures":[{"attachID":20162,"attachName":"联通.png","attachPath":"201301_25_f962197a-1d97-47c4-bae5-295956e738b6","attachSize":44061,"attachType":2,"canPreview":true,"createTime":1359081185,"createTimeStr":"1359081185827","dataID":30679,"employeeID":2,"documentFormat":2,"feedType":1,"height":112,"width":150,"isPublic":false,"source":1,"previewFormat":1,"fileIcon":"jpg"}],"files":[],"employeeRange":"SE维护组","lastUpdateTime":1359081185,"feedRangeDescription":"SE维护组","feedRangeTip":"SE维护组","feedRangeEntities":[{"dataID":11,"name":"SE维护组","isCircle":true}],"smsRemaindCount":0,"readCount":0,"feedContent":[{"type":3,"text":"#SE服务停止#","dataTitle":"SE服务停止"},{"type":0,"text":"\r\r本周日（2013年1月27日 下午14：00）联通灯市口机房维护\r需携带身份证件\r\r维护IP地址 121.101.219.184-121.101.219.187\r\r地址：灯市口地铁C口，干面胡同，地图所示中国联通东四营业厅位置。进入后直走，左手有门，上2楼。联通IDC机房。\r\r"},{"type":5,"text":"@韩鹏","dataID":"56","dataTitle":"韩鹏"},{"type":0,"text":" \r\r程波联系方式：13910637600\rIDC托管中科鸿基 赵静 18601390157"}],"replies":[],"like":{"likeCount":0},"isAlreadyLike":false,"isFollowed":false,"isArchived":false,"isFeedLiked":false,"feedNDFiles":[]},{"feedID":30648,"employeeID":2,"sender":{"gender":"M","groupIDs":[],"employeeID":2,"name":"刘晨","profileImage":"201201_19_a3a3de65-ba8f-4ad1-9641-e29116f6fb65"},"feedContentLength":99,"source":1,"sourceDescription":"纷享平台","createTime":1359036498,"feedType":1,"feedTypeDescription":"分享","isPublic":false,"replyCount":1,"isUnRead":false,"followTime":0,"canDelete":false,"canReply":true,"isEncrypted":false,"encryptTitle":"","pictures":[],"files":[],"employeeRange":"1个部门，1个同事","lastUpdateTime":1359036498,"feedRangeDescription":"1个部门，1个同事","feedRangeTip":"罗旭，SE维护组","feedRangeEntities":[{"dataID":3,"name":"罗旭","isCircle":false},{"dataID":11,"name":"SE维护组","isCircle":true}],"smsRemaindCount":0,"readCount":0,"feedContent":[{"type":3,"text":"#SE服务停止#","dataTitle":"SE服务停止"},{"type":0,"text":"\r经过和程波沟通，"},{"type":1,"text":"SE"},{"type":0,"text":"的服务只能等到周日去机房现场处理。明天和后天"},{"type":1,"text":"SE"},{"type":0,"text":"只有20%的机会有可能恢复。\r\r请相关人员了解情况并做好通知和解释工作。\r\r"},{"type":5,"text":"@李全良","dataID":"1","dataTitle":"李全良"},{"type":0,"text":" "},{"type":5,"text":"@刘红燕","dataID":"8","dataTitle":"刘红燕"},{"type":0,"text":" "},{"type":5,"text":"@韩鹏","dataID":"56","dataTitle":"韩鹏"},{"type":0,"text":" "},{"type":5,"text":"@罗旭","dataID":"3","dataTitle":"罗旭"},{"type":0,"text":" "}],"replies":[],"like":{"likeCount":0},"isAlreadyLike":false,"isFollowed":false,"isArchived":false,"isFeedLiked":false,"feedNDFiles":[]},{"feedID":30581,"employeeID":2,"sender":{"gender":"M","groupIDs":[],"employeeID":2,"name":"刘晨","profileImage":"201201_19_a3a3de65-ba8f-4ad1-9641-e29116f6fb65"},"feedContentLength":178,"source":1,"sourceDescription":"纷享平台","createTime":1358999593,"feedType":1,"feedTypeDescription":"分享","isPublic":false,"replyCount":3,"isUnRead":false,"followTime":0,"canDelete":false,"canReply":true,"isEncrypted":false,"encryptTitle":"","pictures":[],"files":[],"employeeRange":"1个部门，1个同事","lastUpdateTime":1358999593,"feedRangeDescription":"1个部门，1个同事","feedRangeTip":"罗旭，SE维护组","feedRangeEntities":[{"dataID":3,"name":"罗旭","isCircle":false},{"dataID":11,"name":"SE维护组","isCircle":true}],"smsRemaindCount":3,"readCount":2,"feedContent":[{"type":3,"text":"#SE服务停止#","dataTitle":"SE服务停止"},{"type":0,"text":"\r今天10点韩鹏反馈"},{"type":1,"text":"SE"},{"type":0,"text":"又上不了了，登录"},{"type":1,"text":"SE"},{"type":0,"text":"服务器发现是另一台服务器出现问题，和昨天一样。但是采用昨天的方法失败。于是求助程波。\r\r经程波检查，认为是：因为频繁的重启导致SV51和SV52之间的信任坏掉了，解决起来比较困难，需要一点一点排查，因此恢复时间未知。\r\r"},{"type":1,"text":"SE"},{"type":0,"text":"目前服务终止，恢复时间未知。程波这边有进展会告诉我，我会及时告知大家。\r"}],"replies":[],"like":{"likeCount":0},"isAlreadyLike":false,"isFollowed":false,"isArchived":false,"isFeedLiked":false,"feedNDFiles":[]},{"feedID":30463,"employeeID":2,"sender":{"gender":"M","groupIDs":[],"employeeID":2,"name":"刘晨","profileImage":"201201_19_a3a3de65-ba8f-4ad1-9641-e29116f6fb65"},"feedContentLength":229,"source":1,"sourceDescription":"纷享平台","createTime":1358905334,"feedType":1,"feedTypeDescription":"分享","isPublic":false,"replyCount":0,"isUnRead":false,"followTime":0,"canDelete":false,"canReply":true,"isEncrypted":false,"encryptTitle":"","pictures":[],"files":[],"employeeRange":"1个部门，1个同事","lastUpdateTime":1358905334,"feedRangeDescription":"1个部门，1个同事","feedRangeTip":"罗旭，SE维护组","feedRangeEntities":[{"dataID":3,"name":"罗旭","isCircle":false},{"dataID":11,"name":"SE维护组","isCircle":true}],"smsRemaindCount":0,"readCount":0,"feedContent":[{"type":3,"text":"#SE服务停止#","dataTitle":"SE服务停止"},{"type":0,"text":"\r早上8点40，韩鹏说"},{"type":1,"text":"SE"},{"type":0,"text":"停止服务。经连接服务器查看并和程波沟通，诊断为SV62服务器（企业数据库）和域断开连接，造成SQL "},{"type":1,"text":"Se"},{"type":0,"text":"rver启动失败。解决过程如下：\r\r通过SV62本地管理员帐号登录\r输入命令：netdom re"},{"type":1,"text":"se"},{"type":0,"text":"t SV62 /domain:earan.net /u"},{"type":1,"text":"se"},{"type":0,"text":"ro:<域管理员帐号> /passwordo:<域管理员帐号密码>\r重新设置域\r\r执行成功后手动启动SQL "},{"type":1,"text":"Se"},{"type":0,"text":"rver。\r\r解决时间约1小时\r\r"},{"type":5,"text":"@罗旭","dataID":"3","dataTitle":"罗旭"},{"type":0,"text":" "}],"replies":[],"like":{"likeCount":0},"isAlreadyLike":false,"isFollowed":false,"isArchived":false,"isFeedLiked":false,"feedNDFiles":[]},{"feedID":30354,"employeeID":2,"sender":{"gender":"M","groupIDs":[],"employeeID":2,"name":"刘晨","profileImage":"201201_19_a3a3de65-ba8f-4ad1-9641-e29116f6fb65"},"feedContentLength":366,"source":1,"sourceDescription":"纷享平台","createTime":1358825033,"feedType":1,"feedTypeDescription":"分享","isPublic":false,"replyCount":1,"isUnRead":false,"followTime":0,"canDelete":false,"canReply":true,"isEncrypted":false,"encryptTitle":"","pictures":[],"files":[],"employeeRange":"3个同事","lastUpdateTime":1358825033,"feedRangeDescription":"3个同事","feedRangeTip":"李全良，江涛，秦胜兵","feedRangeEntities":[{"dataID":1,"name":"李全良","isCircle":false},{"dataID":30,"name":"江涛","isCircle":false},{"dataID":132,"name":"秦胜兵","isCircle":false}],"smsRemaindCount":0,"readCount":0,"feedContent":[{"type":0,"text":"百度统计代码\r\r百度统计异步代码\r<script>\rvar _hmt = _hmt || [];\r(function() {\r  var hm = document.createElement(\"script\");\r  hm.src = \"//hm.baidu.com/hm.js?b011482b865a36822b1d999b9d98d028\";\r  var s = document.getElementsByTagName(\"script\")[0]; \r  s.parentNode.in"},{"type":1,"text":"se"},{"type":0,"text":"rtBefore(hm, s);\r})();\r</script>\r\r请将代码添加至网站全部页面的</head>标签前\r\r百度统计异步代码是以异步加载形式加载了网站分析代码，使用该代码能够大幅提升您网站的打开速度\r\r"},{"type":5,"text":"@李全良","dataID":"1","dataTitle":"李全良"},{"type":0,"text":" "},{"type":5,"text":"@江涛","dataID":"30","dataTitle":"江涛"},{"type":0,"text":" "}],"replies":[],"like":{"likeCount":0},"isAlreadyLike":false,"isFollowed":false,"isArchived":false,"isFeedLiked":false,"feedNDFiles":[]},{"feedID":29342,"employeeID":2,"sender":{"gender":"M","groupIDs":[],"employeeID":2,"name":"刘晨","profileImage":"201201_19_a3a3de65-ba8f-4ad1-9641-e29116f6fb65"},"feedContentLength":59,"source":1,"sourceDescription":"纷享平台","createTime":1357888525,"feedType":1,"feedTypeDescription":"分享","isPublic":false,"replyCount":0,"isUnRead":false,"followTime":0,"canDelete":false,"canReply":true,"isEncrypted":false,"encryptTitle":"","pictures":[],"files":[],"employeeRange":"SE维护组","lastUpdateTime":1357888525,"feedRangeDescription":"SE维护组","feedRangeTip":"SE维护组","feedRangeEntities":[{"dataID":11,"name":"SE维护组","isCircle":true}],"smsRemaindCount":0,"readCount":0,"feedContent":[{"type":3,"text":"#SE续费#","dataTitle":"SE续费"},{"type":0,"text":"\r"},{"type":1,"text":"SE"},{"type":0,"text":"洛阳涧光石化新购买15个帐号。\r河北鼎新临时116个帐号1月11日到期延长到1月18日，下周再处理。"}],"replies":[],"like":{"likeCount":0},"isAlreadyLike":false,"isFollowed":false,"isArchived":false,"isFeedLiked":false,"feedNDFiles":[]},{"feedID":29209,"employeeID":2,"sender":{"gender":"M","groupIDs":[],"employeeID":2,"name":"刘晨","profileImage":"201201_19_a3a3de65-ba8f-4ad1-9641-e29116f6fb65"},"feedContentLength":35,"source":1,"sourceDescription":"纷享平台","createTime":1357809418,"feedType":1,"feedTypeDescription":"分享","isPublic":false,"replyCount":0,"isUnRead":false,"followTime":0,"canDelete":false,"canReply":true,"isEncrypted":false,"encryptTitle":"","pictures":[],"files":[],"employeeRange":"SE维护组","lastUpdateTime":1357809418,"feedRangeDescription":"SE维护组","feedRangeTip":"SE维护组","feedRangeEntities":[{"dataID":11,"name":"SE维护组","isCircle":true}],"smsRemaindCount":0,"readCount":0,"feedContent":[{"type":3,"text":"#SE续费#","dataTitle":"SE续费"},{"type":0,"text":"\r洛阳涧光石化，续费25个帐号，1年；另10个帐号，9个月"}],"replies":[],"like":{"likeCount":0},"isAlreadyLike":false,"isFollowed":false,"isArchived":false,"isFeedLiked":false,"feedNDFiles":[]},{"feedID":28319,"employeeID":2,"sender":{"gender":"M","groupIDs":[],"employeeID":2,"name":"刘晨","profileImage":"201201_19_a3a3de65-ba8f-4ad1-9641-e29116f6fb65"},"feedContentLength":201,"source":1,"sourceDescription":"纷享平台","createTime":1357287840,"feedType":1,"feedTypeDescription":"分享","isPublic":false,"replyCount":1,"isUnRead":false,"followTime":0,"canDelete":false,"canReply":true,"isEncrypted":false,"encryptTitle":"","pictures":[],"files":[],"employeeRange":"1个部门，1个同事","lastUpdateTime":1357287840,"feedRangeDescription":"1个部门，1个同事","feedRangeTip":"罗旭，SE维护组","feedRangeEntities":[{"dataID":3,"name":"罗旭","isCircle":false},{"dataID":11,"name":"SE维护组","isCircle":true}],"smsRemaindCount":0,"readCount":0,"feedContent":[{"type":3,"text":"#SE服务停止#","dataTitle":"SE服务停止"},{"type":0,"text":"\r\r今日上午处理"},{"type":1,"text":"SE"},{"type":0,"text":"服务停止情况，推测为锡恩的数据量太大，服务无法承受造成。检查数据库文件，锡恩为54G，英特普罗3.6G，茜茜曼迪1.85G，这三个为最大的数据库。\r\r目前外网数据库服务器内存3G，企业服务服务器内存3G，无法满足数据处理的需要应该是目前服务器频繁终止或客户端提示服务器断开链接的主要原因。\r\r将锡恩迁移出去会大幅降低服务的压力。\r\r请领导知悉。\r\r"},{"type":5,"text":"@罗旭","dataID":"3","dataTitle":"罗旭"},{"type":0,"text":" "},{"type":5,"text":"@李全良","dataID":"1","dataTitle":"李全良"},{"type":0,"text":" "}],"replies":[],"like":{"likeCount":0},"isAlreadyLike":false,"isFollowed":false,"isArchived":false,"isFeedLiked":false,"feedNDFiles":[]},{"feedID":27313,"employeeID":2,"sender":{"gender":"M","groupIDs":[],"employeeID":2,"name":"刘晨","profileImage":"201201_19_a3a3de65-ba8f-4ad1-9641-e29116f6fb65"},"feedContentLength":117,"source":1,"sourceDescription":"纷享平台","createTime":1355993484,"feedType":1,"feedTypeDescription":"分享","isPublic":true,"replyCount":4,"isUnRead":false,"followTime":0,"canDelete":false,"canReply":true,"isEncrypted":false,"encryptTitle":"","pictures":[],"files":[],"employeeRange":"全公司","lastUpdateTime":1355993484,"feedRangeDescription":"全公司","feedRangeTip":"全公司","feedRangeEntities":[],"smsRemaindCount":0,"readCount":0,"feedContent":[{"type":3,"text":"#竞争对手动态#","dataTitle":"竞争对手动态"},{"type":0,"text":"\r\r《为什么明道不是中国的Yammer？》 from PingWest\r"},{"type":2,"text":"http://www.pingwest.com/mingdao-chinas-local-enterprise-social-software/"},{"type":0,"text":"\r"}],"replies":[],"like":{"likeCount":0},"isAlreadyLike":false,"isFollowed":false,"isArchived":false,"isFeedLiked":false,"feedNDFiles":[]},{"feedID":26987,"employeeID":2,"sender":{"gender":"M","groupIDs":[],"employeeID":2,"name":"刘晨","profileImage":"201201_19_a3a3de65-ba8f-4ad1-9641-e29116f6fb65"},"feedContentLength":132,"source":1,"sourceDescription":"纷享平台","createTime":1355793940,"feedType":1,"feedTypeDescription":"分享","isPublic":false,"replyCount":2,"isUnRead":false,"followTime":0,"canDelete":false,"canReply":true,"isEncrypted":false,"encryptTitle":"","pictures":[],"files":[],"employeeRange":"1个部门，1个同事","lastUpdateTime":1355793940,"feedRangeDescription":"1个部门，1个同事","feedRangeTip":"罗旭，SE维护组","feedRangeEntities":[{"dataID":3,"name":"罗旭","isCircle":false},{"dataID":11,"name":"SE维护组","isCircle":true}],"smsRemaindCount":0,"readCount":0,"feedContent":[{"type":3,"text":"#SE服务停止#","dataTitle":"SE服务停止"},{"type":0,"text":"\r\r2012.12.18 9:00 \r\r"},{"type":1,"text":"SE"},{"type":0,"text":"服务停止，表现为企业服务停止运行。之前有检测到存储服务器重新启动，如不尽快替换服务器，存储服务器一旦损坏，有可能丢失数据。\r\r不知道一台新服务器是否可以代替原来服务器和存储的功能。\r\r"},{"type":5,"text":"@李全良","dataID":"1","dataTitle":"李全良"},{"type":0,"text":" "},{"type":5,"text":"@罗旭","dataID":"3","dataTitle":"罗旭"},{"type":0,"text":" \r"}],"replies":[],"like":{"likeCount":0},"isAlreadyLike":false,"isFollowed":false,"isArchived":false,"isFeedLiked":false,"feedNDFiles":[]}],"fullEmployee":{"account":"liuchen","mobile":"18611096041","isStop":false,"fullName":"刘晨","tel":"-","role":4,"department":"董事会","post":"执行董事","qq":"17672223","msn":"ooopshappycharles@hotmail.com","email":"liuchen@facishare.com","description":"系统Bug都给我。。","workingState":"客户管理","isAdmin":true,"gender":"M","employeeID":2,"name":"刘晨","profileImage":"201201_19_a3a3de65-ba8f-4ad1-9641-e29116f6fb65"},"pageSize":20,"pageNumber":2,"pageCount":4,"totalCount":76,"maxID":0,"sinceID":0},"success":true,"isAuthorized":true,"statusCode":0,"serviceTime":1388040539,"isCancellation":false}